Perform model fitting for all ordered pairs of markers in a genomic region of interest — scan_pvl • qtl2pleio
…
# read data
n <- 50
pheno <- matrix(rnorm(2 * n), ncol = 2)
rownames(pheno) <- paste0("s", 1:n)
colnames(pheno) <- paste0("tr", 1:2)
probs <- array(dim = c(n, 2, 5))
probs[ , 1, ] <- rbinom(n * 5, size = 1, prob = 0.2)
probs[ , 2, ] <- 1 - probs[ , 1, ]
rownames(probs) <- paste0("s", 1:n)
colnames(probs) <- LETTERS[1:2]
dimnames(probs)[[3]] <- paste0("m", 1:5)
scan_pvl(probs = probs, pheno = pheno, kinship = NULL,
start_snp = 1, n_snp = 5)
#> # A tibble: 25 x 3
#>    Var1  Var2  log10lik
#>    <chr> <chr>    <dbl>
#>  1 m1    m1       -58.8
#>  2 m2    m1       -57.8
#>  3 m3    m1       -58.7
#>  4 m4    m1       -58.9
#>  5 m5    m1       -58.8
#>  6 m1    m2       -58.8
#>  7 m2    m2       -58.0
#>  8 m3    m2       -58.7
#>  9 m4    m2       -58.8
#> 10 m5    m2       -58.7
#> # … with 15 more rows
…
